(edif basic
    Cell -- and2
      ports:
        x	(width: 1)
        b	(width: 1)
        a	(width: 1)
    Cell -- or2
      ports:
        x	(width: 1)
        b	(width: 1)
        a	(width: 1)
    Cell -- BASIC
      ports:
        xxx	(width: 1)
        bbb	(width: 1)
        aaa	(width: 1)
        ccc	(width: 1)

)
