;
; arm_w_X - terminal supercell in ARM spiral
; same as arm_w_e, but does not generate sum outputs
; instead, uses inverted sum sign bit as next X value
;

.define arm_w_X(64,64,\

;*** WESTERN INPUTS
		wcount_tickw:in,\ ; toggle to tick [R,C] weight load select
		ld_const0_w:in,ld_const1_w:in,\ ; Load constant offset
		cin0:in,cin1:in, \ ; Incoming column info

		ldw:in,\ ; Load next state


		winw0:in,winw1:in,winw2:in,winw3:in,\  ; weight to store
		wldw:in,\  ; LOAD signal to store weight


;*** EASTERN OUTPUTS
		wcount_ticke:out,\
		wcout0:out,wcout1:out,\ ; Column of cell in which to set wts
		cout0:out,cout1:out,\ ; outgoing column info
		ld_const0_e:out,ld_const1_e:out,\ ; Load constant offset

		lde:out,\

		woute0:out,woute1:out,woute2:out,woute3:out,\ ; weight to store

		wlde:out,\ ; WEIGHT Load SIGNAL


;*** NORTHERN INPUTS

		wcount_tickn:in,\ ; toggle to tick [R,C] weight load select
		rin1:in,rin0:in,\ ; Incoming row info

		ld_const0_n:in,ld_const1_n:in,\

		ldn:in,\

		winn3:in,winn2:in,winn1:in,winn0:in,\; Incoming weight
		wldn:in,\ ; LOAD WEIGHT signal


;*** SOUTHERN OUTPUTS
		wcount_ticks:out,\
		wrout1:out,wrout0:out,\ ; Row of cell in which to set wts
		rout1:out,rout0:out,\;Row info

		ld_const0_s:out,ld_const1_s:out,\
		lds:out,\

		wouts3:out,wouts2:out,wouts1:out,wouts0:out,\; Weight
		wlds:out,\; LOAD WEIGHT signal

;*** Running sum: in and out

		sin0:in,sin1:in,sin2:in,sin3:in,\
		sin4:in,sin5:in,sin6:in,sin7:in\  ; running sum in

		;* sout0:out,sout1:out,sout2:out,sout3:out,\
		;* sout4:out,sout5:out,sout6:out,sout7:out \ ; running sum out
	)


;*** SUM inputs- side depends on supercell position
.locate sin0,w,15,15
.locate sin1,w,18,18
.locate sin2,w,21,21
.locate sin3,w,24,24
.locate sin4,w,27,27
.locate sin5,w,30,30
.locate sin6,w,33,33
.locate sin7,w,36,36

;*** SUM outputs - side depends on supercell position
;.locate sout0,e,15,15
;.locate sout1,e,18,18
;.locate sout2,e,21,21
;.locate sout3,e,24,24
;.locate sout4,e,27,27
;.locate sout5,e,30,30
;.locate sout6,e,33,33
;.locate sout7,e,36,36


;*** Other edge I/O
;*** Fix input/output locations so supercells line up
.locate wcount_tickw,w,6,6
.locate cin0,w,9,9
.locate cin1,w,12,12
.locate winw0,w,39,39
.locate winw1,w,42,42
.locate winw2,w,45,45
.locate winw3,w,48,48
.locate wldw,w,51,51
.locate ld_const0_w,w,54,54
.locate ld_const1_w,w,57,57
.locate ldw,w,60,60


.locate wcount_tickn,n,6,6
.locate rin1,n,9,9
.locate rin0,n,12,12
.locate winn3,n,39,39
.locate winn2,n,42,42
.locate winn1,n,45,45
.locate winn0,n,48,48
.locate wldn,n,51,51
.locate ld_const0_n,n,54,54
.locate ld_const1_n,n,57,57
.locate ldn,n,60,60


.locate wcount_ticke,e,6,6
.locate cout0,e,9,9
.locate cout1,e,12,12
.locate woute0,e,39,39
.locate woute1,e,42,42
.locate woute2,e,45,45
.locate woute3,e,48,48
.locate wlde,e,51,51
.locate ld_const0_e,e,54,54
.locate ld_const1_e,e,57,57
.locate lde,e,60,60


.locate wcount_ticks,s,6,6
.locate rout1,s,9,9
.locate rout0,s,12,12
.locate wouts3,s,39,39
.locate wouts2,s,42,42
.locate wouts1,s,45,45
.locate wouts0,s,48,48
.locate wlds,s,51,51
.locate ld_const0_s,s,54,54
.locate ld_const1_s,s,57,57
.locate lds,s,60,60


.library "../MAIN.LIB"   ; generic input library
.libout "ARM.LIB"

;*** Instantiate components


;*** Dynamic [R,C] Calculation

.instance r1=one()
r1 [3,3]-[60,60] rot=-1
.instance c1=one()	; Constant for increment
c1 [3,3]-[60,60] rot=-1
.instance rinc=add_2()
rinc [3,3]-[60,60] rot=-1
.instance cinc=add_2()	; For incrementing [R,C] from supercell-to-supercell
cinc [3,3]-[60,60] rot=-1
.instance rincl0=and2()
rincl0 [3,3]-[60,60] rot=-1
.instance rincl1=and2()
rincl1 [3,3]-[60,60] rot=-1
.instance rincl2=nand2()
rincl2 [3,3]-[60,60] rot=-1
.instance cincl0=and2()
cincl0 [3,3]-[60,60] rot=-1
.instance cincl1=and2()
cincl1 [3,3]-[60,60] rot=-1
.instance cincl2=nand2()	; Glue logic for Mod 3 operation
cincl2 [3,3]-[60,60] rot=-1


;*** Weight propagation throughout supercell network plus storage

.instance winor0=or2() 
winor0 [3,3]-[60,60] rot=-1
.instance winor1=or2() 
winor1 [3,3]-[60,60] rot=-1
.instance winor2=or2() 
winor2 [3,3]-[60,60] rot=-1
.instance winor3=or2()	; Weight prop: compute Nin + Win
winor3 [3,3]-[60,60] rot=-1

.instance wldor=or2()	; LOAD prop: compute Nin + Win
wldor [3,3]-[60,60] rot=-1

.instance wtld=and2()	; Final input to WEIGHT register
wtld [3,3]-[60,60] rot=-1

.instance wt=latch4()	; Stores supercell's weight
wt [3,3]-[60,60] rot=-1

.instance wcount=count4_clkb_clrb()
wcount [3,3]-[60,60] rot=-1
; moves through [R,C] supercells for loading weight/X

.instance wcountl1=or2()
wcountl1 [3,3]-[60,60] rot=-1
.instance wcountl2=not()
wcountl2 [3,3]-[60,60] rot=-1

.instance wtl1=xnor()
wtl1 [3,3]-[60,60] rot=-1
.instance wtl2=xnor()
wtl2 [3,3]-[60,60] rot=-1
.instance wtl4=xnor()
wtl4 [3,3]-[60,60] rot=-1
.instance wtl5=xnor()
wtl5 [3,3]-[60,60] rot=-1
.instance wtl7=and2()
wtl7 [3,3]-[60,60] rot=-1
.instance wtl8=and2()
wtl8 [3,3]-[60,60] rot=-1
.instance wtl9=and2()	; Glue logic for weight [R,C] matching
wtl9 [3,3]-[60,60] rot=-1


;*** constant offset load logic
.instance constor0=or2()
constor0 [3,3]-[60,60] rot=-1
.instance constor1=or2()
constor1 [3,3]-[60,60] rot=-1


;*** X load

.instance xreg=dff_negedge()	; Stores supercell's STATE
xreg [3,3]-[60,60] rot=-1


;*** Calculation of running sum

.instance add=add_8() @[24,24]
add [24,24]-[24,24] rot=-1



;*** glue logic for conditional addition of weight to running sum
.instance xregl0=and2()
xregl0 [3,3]-[60,60] rot=-1
.instance xregl1=and2()
xregl1 [3,3]-[60,60] rot=-1
.instance xregl2=and2()
xregl2 [3,3]-[60,60] rot=-1
.instance xregl3=and2()
xregl3 [3,3]-[60,60] rot=-1


;*** LOAD SIGNAL logic (next state)
.instance ldlog1=or2()
ldlog1 [3,3]-[60,60] rot=-1
.instance ldlog2=or2()
ldlog2 [3,3]-[60,60] rot=-1
.instance ldlog3=or2()
ldlog3 [3,3]-[60,60] rot=-1
.instance ldlog4=nor2()
ldlog4 [3,3]-[60,60] rot=-1

;*** Now we wire the components together...


; LOAD signal
.net(ldw,ldlog1.a)
.net(ldn,ldlog1.b)
.net(ldlog1.x,lde,lds,ldlog2.a)
.net(ldlog2.b,wtld.x)
.net(ldlog2.x,xreg.clk) ; Load XREG on WLDE (preload) or LDE (STEP)

;* Only load sign bit into X reg in arm_w_X
.net(ldlog4.a,add.s7) ; sign bit from running sum

.net(ldlog4.b,ld_const1_e) ; if ld_const1_e=1, add.s7 is blocked
.net(ldlog4.x,ldlog3.a)
.net(ldlog3.b,ld_const0_e) ; can specify new X value from ld_const0_e
                           ; if ld_const1_e=1; or from add.s7
.net(ldlog3.x,xreg.d);


;*** ROW calculation

.net(rin0,rinc.a0)
.net(rin1,rinc.a1)
.net(r1.x,rinc.b0)
.net(rinc.s0,rincl0.b,rincl2.b)
.net(rinc.s1,rincl1.b,rincl2.a)
.net(rincl2.x,rincl0.a,rincl1.a)
.net(rout0,rincl0.x)
.net(rout1,rincl1.x)


;*** COLUMN calculation

.net(cin0,cinc.a0)
.net(cin1,cinc.a1)
.net(c1.x,cinc.b0)
.net(cinc.s0,cincl0.b,cincl2.b)
.net(cinc.s1,cincl1.b,cincl2.a)
.net(cincl2.x,cincl0.a,cincl1.a)
.net(cout0,cincl0.x)
.net(cout1,cincl1.x)


;*** WEIGHT transmittal

.net(winn0,winor0.a)
.net(winw0,winor0.b)
.net(winor0.x,wouts0,woute0)
.net(winn1,winor1.a)
.net(winw1,winor1.b)
.net(winor1.x,wouts1,woute1)
.net(winn2,winor2.a)
.net(winw2,winor2.b)
.net(winor2.x,wouts2,woute2)
.net(winn3,winor3.a)
.net(winw3,winor3.b)
.net(winor3.x,wouts3,woute3)


;*** WEIGHT STORAGE

.net(woute0,wt.d0)
FOUND pre-existing net containing .woute0
.net(woute1,wt.d1)
FOUND pre-existing net containing .woute1
.net(woute2,wt.d2)
FOUND pre-existing net containing .woute2
.net(woute3,wt.d3) ; from weight distribution
FOUND pre-existing net containing .woute3

.net(wldn,wldor.a)
.net(wldw,wldor.b)
.net(wldor.x,wlds,wlde,wtld.a)



;*** Move to next [R,C] for loading weight and X
.net(lde,wcountl2.a)
FOUND pre-existing net containing .lde
.net(wcountl2.x,wcount.clrb)
.net(wcount_tickw,wcountl1.a)
.net(wcount_tickn,wcountl1.b)
.net(wcountl1.x,wcount.clkb,wcount_ticke,wcount_ticks)

;*** Constant propogation
.net(ld_const0_w,constor0.a)
.net(ld_const0_n,constor0.b)
.net(constor0.x,ld_const0_s,ld_const0_e)
FOUND pre-existing net containing .ld_const0_e
.net(ld_const1_w,constor1.a)
.net(ld_const1_n,constor1.b)
.net(constor1.x,ld_const1_s,ld_const1_e)
FOUND pre-existing net containing .ld_const1_e


;*** Row/Column matching with WEIGHT load requests
.net(wcount.c2,wtl1.a)
.net(rin0,wtl1.b)
FOUND pre-existing net containing .rin0
.net(wcount.c3,wtl2.a)
.net(rin1,wtl2.b)
FOUND pre-existing net containing .rin1
.net(wcount.c0,wtl4.a)
.net(cin0,wtl4.b)
FOUND pre-existing net containing .cin0
.net(wcount.c1,wtl5.a)
.net(cin1,wtl5.b)
FOUND pre-existing net containing .cin1
.net(wtl1.x,wtl8.a)
.net(wtl2.x,wtl8.b)
.net(wtl4.x,wtl7.a)
.net(wtl5.x,wtl7.b)
.net(wtl9.a,wtl8.x)
.net(wtl9.b,wtl7.x)
.net(wtl9.x,wtld.b)
.net(wtld.x,wt.ld)
FOUND pre-existing net containing wtld.x

;*** Weight->Adder input

.net(xreg.q,xregl0.a,xregl1.a,xregl2.a,xregl3.a)
.net(wt.q0,xregl0.b)
.net(wt.q1,xregl1.b)
.net(wt.q2,xregl2.b)
.net(wt.q3,xregl3.b)
.net(xregl0.x,add.b0)
.net(xregl1.x,add.b1)
.net(xregl2.x,add.b2)
.net(xregl3.x,add.b3)
.net(xregl3.x,add.b4)
FOUND pre-existing net containing xregl3.x
.net(xregl3.x,add.b5)
FOUND pre-existing net containing xregl3.x
.net(xregl3.x,add.b6)
FOUND pre-existing net containing xregl3.x
.net(xregl3.x,add.b7) ; Sig
No errors detected!

n-extended!
FOUND pre-existing net containing xregl3.x


;* Adder input
.net(sin0,add.a0)
.net(sin1,add.a1)
.net(sin2,add.a2)
.net(sin3,add.a3)
.net(sin4,add.a4)
.net(sin5,add.a5)
.net(sin6,add.a6)
.net(sin7,add.a7)

;* Adder output
;.net(sout0,add.s0)
;.net(sout1,add.s1)
;.net(sout2,add.s2)
;.net(sout3,add.s3)
;.net(sout4,add.s4)
;.net(sout5,add.s5)
;.net(sout6,add.s6)
;.net(sout7,add.s7)

;*** END OF INPUT ***
Circuit Name=arm_w_X
dims=64x64
EDGE I/O:
wcount_tickw:in:side=w;cells=6,6
ld_const0_w:in:side=w;cells=54,54
ld_const1_w:in:side=w;cells=57,57
cin0:in:side=w;cells=9,9
cin1:in:side=w;cells=12,12
ldw:in:side=w;cells=60,60
winw0:in:side=w;cells=39,39
winw1:in:side=w;cells=42,42
winw2:in:side=w;cells=45,45
winw3:in:side=w;cells=48,48
wldw:in:side=w;cells=51,51
wcount_tickn:in:side=n;cells=6,6
rin1:in:side=n;cells=9,9
rin0:in:side=n;cells=12,12
ld_const0_n:in:side=n;cells=54,54
ld_const1_n:in:side=n;cells=57,57
ldn:in:side=n;cells=60,60
winn3:in:side=n;cells=39,39
winn2:in:side=n;cells=42,42
winn1:in:side=n;cells=45,45
winn0:in:side=n;cells=48,48
wldn:in:side=n;cells=51,51
sin0:in:side=w;cells=15,15
sin1:in:side=w;cells=18,18
sin2:in:side=w;cells=21,21
sin3:in:side=w;cells=24,24
sin4:in:side=w;cells=27,27
sin5:in:side=w;cells=30,30
sin6:in:side=w;cells=33,33
sin7:in:side=w;cells=36,36
wcount_ticke:out:side=e;cells=6,6
wcout0:out:side= ;cells=-1,-1
wcout1:out:side= ;cells=-1,-1
cout0:out:side=e;cells=9,9
cout1:out:side=e;cells=12,12
ld_const0_e:out:side=e;cells=54,54
ld_const1_e:out:side=e;cells=57,57
lde:out:side=e;cells=60,60
woute0:out:side=e;cells=39,39
woute1:out:side=e;cells=42,42
woute2:out:side=e;cells=45,45
woute3:out:side=e;cells=48,48
wlde:out:side=e;cells=51,51
wcount_ticks:out:side=s;cells=6,6
wrout1:out:side= ;cells=-1,-1
wrout0:out:side= ;cells=-1,-1
rout1:out:side=s;cells=9,9
rout0:out:side=s;cells=12,12
ld_const0_s:out:side=s;cells=54,54
ld_const1_s:out:side=s;cells=57,57
lds:out:side=s;cells=60,60
wouts3:out:side=s;cells=39,39
wouts2:out:side=s;cells=42,42
wouts1:out:side=s;cells=45,45
wouts0:out:side=s;cells=48,48
wlds:out:side=s;cells=51,51

INSTANCES:
ldlog4(nor2) IO assignments: a(index=0) b(index=1) x(index=2) 
Component is 1x1
ldlog3(or2) IO assignments: a(index=0) b(index=1) x(index=2) 
Component is 1x1
ldlog2(or2) IO assignments: a(index=0) b(index=1) x(index=2) 
Component is 1x1
ldlog1(or2) IO assignments: a(index=0) b(index=1) x(index=2) 
Component is 1x1
xregl3(and2) IO assignments: a(index=0) b(index=1) x(index=2) 
Component is 1x1
xregl2(and2) IO assignments: a(index=0) b(index=1) x(index=2) 
Component is 1x1
xregl1(and2) IO assignments: a(index=0) b(index=1) x(index=2) 
Component is 1x1
xregl0(and2) IO assignments: a(index=0) b(index=1) x(index=2) 
Component is 1x1
add(add_8) IO assignments: a0(index=0) a1(index=1) a2(index=2) a3(index=3) a4(index=4) a5(index=5) a6(index=6) a7(index=7) b0(index=8) b1(index=9) b2(index=10) b3(index=11) b4(index=12) b5(index=13) b6(index=14) b7(index=15) s0(index=16) s1(index=17) s2(index=18) s3(index=19) s4(index=20) s5(index=21) s6(index=22) s7(index=23) cin(index=24) cout(index=25) 
Component is 1x8
xreg(dff_negedge) IO assignments: clk(index=0) d(index=1) q(index=2) qbar(index=3) set(index=4) clr(index=5) 
Component is 1x3
constor1(or2) IO assignments: a(index=0) b(index=1) x(index=2) 
Component is 1x1
constor0(or2) IO assignments: a(index=0) b(index=1) x(index=2) 
Component is 1x1
wtl9(and2) IO assignments: a(index=0) b(index=1) x(index=2) 
Component is 1x1
wtl8(and2) IO assignments: a(index=0) b(index=1) x(index=2) 
Component is 1x1
wtl7(and2) IO assignments: a(index=0) b(index=1) x(index=2) 
Component is 1x1
wtl5(xnor) IO assignments: a(index=0) b(index=1) x(index=2) 
Component is 1x1
wtl4(xnor) IO assignments: a(index=0) b(index=1) x(index=2) 
Component is 1x1
wtl2(xnor) IO assignments: a(index=0) b(index=1) x(index=2) 
Component is 1x1
wtl1(xnor) IO assignments: a(index=0) b(index=1) x(index=2) 
Component is 1x1
wcountl2(not) IO assignments: a(index=0) x(index=1) 
Component is 1x1
wcountl1(or2) IO assignments: a(index=0) b(index=1) x(index=2) 
Component is 1x1
wcount(count4_clkb_clrb) IO assignments: clrb(index=0) clkb(index=1) c0(index=2) c1(index=3) c2(index=4) c3(index=5) 
Component is 4x3
wt(latch4) IO assignments: ld(index=0) d0(index=1) d1(index=2) d2(index=3) d3(index=4) q0(index=5) q1(index=6) q2(index=7) q3(index=8) 
Component is 4x2
wtld(and2) IO assignments: a(index=0) b(index=1) x(index=2) 
Component is 1x1
wldor(or2) IO assignments: a(index=0) b(index=1) x(index=2) 
Component is 1x1
winor3(or2) IO assignments: a(index=0) b(index=1) x(index=2) 
Component is 1x1
winor2(or2) IO assignments: a(index=0) b(index=1) x(index=2) 
Component is 1x1
winor1(or2) IO assignments: a(index=0) b(index=1) x(index=2) 
Component is 1x1
winor0(or2) IO assignments: a(index=0) b(index=1) x(index=2) 
Component is 1x1
cincl2(nand2) IO assignments: a(index=0) b(index=1) x(index=2) 
Component is 1x1
cincl1(and2) IO assignments: a(index=0) b(index=1) x(index=2) 
Component is 1x1
cincl0(and2) IO assignments: a(index=0) b(index=1) x(index=2) 
Component is 1x1
rincl2(nand2) IO assignments: a(index=0) b(index=1) x(index=2) 
Component is 1x1
rincl1(and2) IO assignments: a(index=0) b(index=1) x(index=2) 
Component is 1x1
rincl0(and2) IO assignments: a(index=0) b(index=1) x(index=2) 
Component is 1x1
cinc(add_2) IO assignments: a0(index=0) a1(index=1) b0(index=2) b1(index=3) s0(index=4) s1(index=5) cin(index=6) cout(index=7) 
Component is 1x2
rinc(add_2) IO assignments: a0(index=0) a1(index=1) b0(index=2) b1(index=3) s0(index=4) s1(index=5) cin(index=6) cout(index=7) 
Component is 1x2
c1(one) IO assignments: x(index=0) 
Component is 1x1
r1(one) IO assignments: x(index=0) 
Component is 1x1


NETS:
[EDGE:5 ldlog1:0 ]
[EDGE:16 ldlog1:1 ]
[ldlog2:2 xreg:0 ]
[ldlog4:0 add:23 ]
[ldlog4:2 ldlog3:0 ]
[ldlog3:2 xreg:1 ]
[r1:0 rinc:2 ]
[rinc:4 rincl0:1 rincl2:1 ]
[rinc:5 rincl1:1 rincl2:0 ]
[rincl2:2 rincl0:0 rincl1:0 ]
[EDGE:47 rincl0:2 ]
[EDGE:46 rincl1:2 ]
[c1:0 cinc:2 ]
[cinc:4 cincl0:1 cincl2:1 ]
[cinc:5 cincl1:1 cincl2:0 ]
[cincl2:2 cincl0:0 cincl1:0 ]
[EDGE:33 cincl0:2 ]
[EDGE:34 cincl1:2 ]
[EDGE:20 winor0:0 ]
[EDGE:6 winor0:1 ]
[EDGE:19 winor1:0 ]
[EDGE:7 winor1:1 ]
[EDGE:18 winor2:0 ]
[EDGE:8 winor2:1 ]
[EDGE:17 winor3:0 ]
[EDGE:9 winor3:1 ]
[winor0:2 EDGE:54 EDGE:38 wt:1 ]
[winor1:2 EDGE:53 EDGE:39 wt:2 ]
[winor2:2 EDGE:52 EDGE:40 wt:3 ]
[winor3:2 EDGE:51 EDGE:41 wt:4 ]
[EDGE:21 wldor:0 ]
[EDGE:10 wldor:1 ]
[wldor:2 EDGE:55 EDGE:42 wtld:0 ]
[ldlog1:2 EDGE:37 EDGE:50 ldlog2:0 wcountl2:0 ]
[wcountl2:1 wcount:0 ]
[EDGE:0 wcountl1:0 ]
[EDGE:11 wcountl1:1 ]
[wcountl1:2 wcount:1 EDGE:30 EDGE:43 ]
[EDGE:1 constor0:0 ]
[EDGE:14 constor0:1 ]
[constor0:2 EDGE:48 ldlog3:1 EDGE:35 ]
[EDGE:2 constor1:0 ]
[EDGE:15 constor1:1 ]
[constor1:2 EDGE:49 ldlog4:1 EDGE:36 ]
[wcount:4 wtl1:0 ]
[EDGE:13 rinc:0 wtl1:1 ]
[wcount:5 wtl2:0 ]
[EDGE:12 rinc:1 wtl2:1 ]
[wcount:2 wtl4:0 ]
[EDGE:3 cinc:0 wtl4:1 ]
[wcount:3 wtl5:0 ]
[EDGE:4 cinc:1 wtl5:1 ]
[wtl1:2 wtl8:0 ]
[wtl2:2 wtl8:1 ]
[wtl4:2 wtl7:0 ]
[wtl5:2 wtl7:1 ]
[wtl9:0 wtl8:2 ]
[wtl9:1 wtl7:2 ]
[wtl9:2 wtld:1 ]
[ldlog2:1 wtld:2 wt:0 ]
[xreg:2 xregl0:0 xregl1:0 xregl2:0 xregl3:0 ]
[wt:5 xregl0:1 ]
[wt:6 xregl1:1 ]
[wt:7 xregl2:1 ]
[wt:8 xregl3:1 ]
[xregl0:2 add:8 ]
[xregl1:2 add:9 ]
[xregl2:2 add:10 ]
[xregl3:2 add:11 add:12 add:13 add:14 add:15 ]
[EDGE:22 add:0 ]
[EDGE:23 add:1 ]
[EDGE:24 add:2 ]
[EDGE:25 add:3 ]
[EDGE:26 add:4 ]
[EDGE:27 add:5 ]
[EDGE:28 add:6 ]
[EDGE:29 add:7 ]


TESTING NETWORK RETRIEVAL PROCEDURES
NEW NETWORK: EDGE:5 ldlog1.0 
NEW NETWORK: EDGE:16 ldlog1.1 
NEW NETWORK: ldlog2.2 xreg.0 
NEW NETWORK: ldlog4.0 add.23 
NEW NETWORK: ldlog4.2 ldlog3.0 
NEW NETWORK: ldlog3.2 xreg.1 
NEW NETWORK: r1.0 rinc.2 
NEW NETWORK: rinc.4 rincl0.1 rincl2.1 
NEW NETWORK: rinc.5 rincl1.1 rincl2.0 
NEW NETWORK: rincl2.2 rincl0.0 rincl1.0 
NEW NETWORK: EDGE:47 rincl0.2 
NEW NETWORK: EDGE:46 rincl1.2 
NEW NETWORK: c1.0 cinc.2 
NEW NETWORK: cinc.4 cincl0.1 cincl2.1 
NEW NETWORK: cinc.5 cincl1.1 cincl2.0 
NEW NETWORK: cincl2.2 cincl0.0 cincl1.0 
NEW NETWORK: EDGE:33 cincl0.2 
NEW NETWORK: EDGE:34 cincl1.2 
NEW NETWORK: EDGE:20 winor0.0 
NEW NETWORK: EDGE:6 winor0.1 
NEW NETWORK: EDGE:19 winor1.0 
NEW NETWORK: EDGE:7 winor1.1 
NEW NETWORK: EDGE:18 winor2.0 
NEW NETWORK: EDGE:8 winor2.1 
NEW NETWORK: EDGE:17 winor3.0 
NEW NETWORK: EDGE:9 winor3.1 
NEW NETWORK: winor0.2 EDGE:54 EDGE:38 wt.1 
NEW NETWORK: winor1.2 EDGE:53 EDGE:39 wt.2 
NEW NETWORK: winor2.2 EDGE:52 EDGE:40 wt.3 
NEW NETWORK: winor3.2 EDGE:51 EDGE:41 wt.4 
NEW NETWORK: EDGE:21 wldor.0 
NEW NETWORK: EDGE:10 wldor.1 
NEW NETWORK: wldor.2 EDGE:55 EDGE:42 wtld.0 
NEW NETWORK: ldlog1.2 EDGE:37 EDGE:50 ldlog2.0 wcountl2.0 
NEW NETWORK: wcountl2.1 wcount.0 
NEW NETWORK: EDGE:0 wcountl1.0 
NEW NETWORK: EDGE:11 wcountl1.1 
NEW NETWORK: wcountl1.2 wcount.1 EDGE:30 EDGE:43 
NEW NETWORK: EDGE:1 constor0.0 
NEW NETWORK: EDGE:14 constor0.1 
NEW NETWORK: constor0.2 EDGE:48 ldlog3.1 EDGE:35 
NEW NETWORK: EDGE:2 constor1.0 
NEW NETWORK: EDGE:15 constor1.1 
NEW NETWORK: constor1.2 EDGE:49 ldlog4.1 EDGE:36 
NEW NETWORK: wcount.4 wtl1.0 
NEW NETWORK: EDGE:13 rinc.0 wtl1.1 
NEW NETWORK: wcount.5 wtl2.0 
NEW NETWORK: EDGE:12 rinc.1 wtl2.1 
NEW NETWORK: wcount.2 wtl4.0 
NEW NETWORK: EDGE:3 cinc.0 wtl4.1 
NEW NETWORK: wcount.3 wtl5.0 
NEW NETWORK: EDGE:4 cinc.1 wtl5.1 
NEW NETWORK: wtl1.2 wtl8.0 
NEW NETWORK: wtl2.2 wtl8.1 
NEW NETWORK: wtl4.2 wtl7.0 
NEW NETWORK: wtl5.2 wtl7.1 
NEW NETWORK: wtl9.0 wtl8.2 
NEW NETWORK: wtl9.1 wtl7.2 
NEW NETWORK: wtl9.2 wtld.1 
NEW NETWORK: ldlog2.1 wtld.2 wt.0 
NEW NETWORK: xreg.2 xregl0.0 xregl1.0 xregl2.0 xregl3.0 
NEW NETWORK: wt.5 xregl0.1 
NEW NETWORK: wt.6 xregl1.1 
NEW NETWORK: wt.7 xregl2.1 
NEW NETWORK: wt.8 xregl3.1 
NEW NETWORK: xregl0.2 add.8 
NEW NETWORK: xregl1.2 add.9 
NEW NETWORK: xregl2.2 add.10 
NEW NETWORK: xregl3.2 add.11 add.12 add.13 add.14 add.15 
NEW NETWORK: EDGE:22 add.0 
NEW NETWORK: EDGE:23 add.1 
NEW NETWORK: EDGE:24 add.2 
NEW NETWORK: EDGE:25 add.3 
NEW NETWORK: EDGE:26 add.4 
NEW NETWORK: EDGE:27 add.5 
NEW NETWORK: EDGE:28 add.6 
NEW NETWORK: EDGE:29 add.7 
# instances=39 # edgeports=56
Smallest range: ind=0 range=0
Smallest range: ind=1 range=0
Smallest range: ind=2 range=0
Smallest range: ind=3 range=0
Smallest range: ind=4 range=0
Smallest range: ind=5 range=0
Smallest range: ind=6 range=0
Smallest range: ind=7 range=0
Smallest range: ind=8 range=0
Smallest range: ind=9 range=0
Smallest range: ind=10 range=0
Smallest range: ind=11 range=0
Smallest range: ind=12 range=0
Smallest range: ind=13 range=0
Smallest range: ind=14 range=0
Smallest range: ind=15 range=0
Smallest range: ind=16 range=0
Smallest range: ind=17 range=0
Smallest range: ind=18 range=0
Smallest range: ind=19 range=0
Smallest range: ind=20 range=0
Smallest range: ind=21 range=0
Smallest range: ind=22 range=0
Smallest range: ind=23 range=0
Smallest range: ind=24 range=0
Smallest range: ind=25 range=0
Smallest range: ind=26 range=0
Smallest range: ind=27 range=0
Smallest range: ind=28 range=0
Smallest range: ind=29 range=0
Smallest range: ind=30 range=0
Smallest range: ind=33 range=0
Smallest range: ind=34 range=0
Smallest range: ind=35 range=0
Smallest range: ind=36 range=0
Smallest range: ind=37 range=0
Smallest range: ind=38 range=0
Smallest range: ind=39 range=0
Smallest range: ind=40 range=0
Smallest range: ind=41 range=0
Smallest range: ind=42 range=0
Smallest range: ind=43 range=0
Smallest range: ind=46 range=0
Smallest range: ind=47 range=0
Smallest range: ind=48 range=0
Smallest range: ind=49 range=0
Smallest range: ind=50 range=0
Smallest range: ind=51 range=0
Smallest range: ind=52 range=0
Smallest range: ind=53 range=0
Smallest range: ind=54 range=0
Smallest range: ind=55 range=0
Smallest range: ind=31 range=128
Smallest range: ind=32 range=128
Smallest range: ind=44 range=128
Smallest range: ind=45 range=128
init temp=958.384
# moves per temp=4269
a:add(add_8)
b:ldlog4(nor2)
c:ldlog3(or2)
d:ldlog2(or2)
e:ldlog1(or2)
f:xregl3(and2)
g:xregl2(and2)
h:xregl1(and2)
i:xregl0(and2)
j:xreg(dff_negedge)
k:constor1(or2)
l:constor0(or2)
m:wtl9(and2)
n:wtl8(and2)
o:wtl7(and2)
p:wtl5(xnor)
q:wtl4(xnor)
r:wtl2(xnor)
s:wtl1(xnor)
t:wcountl2(not)
u:wcountl1(or2)
v:wcount(count4_clkb_clrb)
w:wt(latch4)
x:wtld(and2)
y:wldor(or2)
z:winor3(or2)
0:winor2(or2)
1:winor1(or2)
2:winor0(or2)
3:cincl2(nand2)
4:cincl1(and2)
5:cincl0(and2)
6:rincl2(nand2)
7:rincl1(and2)
8:rincl0(and2)
9:cinc(add_2)
::rinc(add_2)
;:c1(one)
<:r1(one)
0:wcount_tickw[input]
1:ld_const0_w[input]
2:ld_const1_w[input]
3:cin0[input]
4:cin1[input]
5:ldw[input]
6:winw0[input]
7:winw1[input]
8:winw2[input]
9:winw3[input]
::wldw[input]
;:wcount_tickn[input]
<:rin1[input]
=:rin0[input]
>:ld_const0_n[input]
?:ld_const1_n[input]
@:ldn[input]
A:winn3[input]
B:winn2[input]
C:winn1[input]
D:winn0[input]
E:wldn[input]
F:sin0[input]
G:sin1[input]
H:sin2[input]
I:sin3[input]
J:sin4[input]
K:sin5[input]
L:sin6[input]
M:sin7[input]
N:wcount_ticke[output]
O:wcout0[output]
P:wcout1[output]
Q:cout0[output]
R:cout1[output]
S:ld_const0_e[output]
T:ld_const1_e[output]
U:lde[output]
V:woute0[output]
W:woute1[output]
X:woute2[output]
Y:woute3[output]
Z:wlde[output]
[:wcount_ticks[output]
\:wrout1[output]
]:wrout0[output]
^:rout1[output]
_:rout0[output]
`:ld_const0_s[output]
a:ld_const1_s[output]
b:lds[output]
c:wouts3[output]
d:wouts2[output]
e:wouts1[output]
f:wouts0[output]
g:wlds[output]

P.....;..<..=...............\........].A..B..C..D..E..>..?..@...
................................................................
................................................................
........................................m.......................
................................................................
................................................................
0..............................p........................u......N
................................................................
................................................................
3.................................................4............Q
...........................................................l....
................................................................
4........g.....................................................R
..................................................99............
................................................................
F............................vvvv...............................
.............................vvvv...............................
.............................vvvv...............................
G......d.........0..............................................
.............................................e..................
................................................................
H................................7........................jjj...
...........2....................................................
................................................................
I.......................a.......................................
...............3........a.......................................
........................a......................6................
J.......................a.......................................
........................a.......................................
........................a............................1..........
K.......................a.......................................
...k................t...a.......................................
................................................................
L...............................................................
...............................q.....c..........................
....f.........<.............................................b...
M...............................................................
................................................................
................................................................
6...............................i.........;....................V
................................................................
................................................................
7..............................................................W
.....................................................r..........
................................................................
8........................n..............wwww...................X
........................................wwww....................
...................................................y............
9.......z...................................................5..Y
................................................................
................................................................
:..............................................................Z
................................................................
................................................................
1.............................x..........o.....h...............S
................................................................
..........................s.....................................
2.....::.......................................................T
................................................................
................................................................
5.........................................8....................U
................................................................
................................................................
......[..^.._..........................cO.d..e..f..g..`..a..b...

Cost=2860.35 R=0.99391 New temp=479.192 New D=198                           
Cost=2447.21 R=0.988053 New temp=239.596 New D=306                           
Cost=2396.63 R=0.973062 New temp=119.798 New D=469                           
Cost=2354.17 R=0.950574 New temp=107.818 New D=708                           
Cost=2320.86 R=0.944249 New temp=97.0364 New D=1065                           
Cost=2429.48 R=0.938627 New temp=87.3327 New D=1596                           
Cost=2164.27 R=0.932068 New temp=78.5995 New D=2381                           
Cost=2372.69 R=0.923167 New temp=70.7395 New D=3531                           
Cost=2105.77 R=0.92059 New temp=63.6656 New D=5227                           
Cost=1968.27 R=0.913563 New temp=57.299 New D=7702                           
Cost=2221.62 R=0.904896 New temp=51.5691 New D=11282                           
Cost=2319.93 R=0.888264 New temp=46.4122 New D=16339                           
Cost=2225.92 R=0.888498 New temp=41.771 New D=23667                           
Cost=1825.6 R=0.872101 New temp=37.5939 New D=33893                           
Cost=2142.22 R=0.861092 New temp=33.8345 New D=48165                           
Cost=1991.61 R=0.852893 New temp=30.451 New D=68051                           
Cost=2053.29 R=0.839541 New temp=27.4059 New D=95240                           
Cost=1843.18 R=0.821504 New temp=24.6653 New D=131574                           
Cost=1728.34 R=0.828766 New temp=22.1988 New D=182725                           
Cost=2108.16 R=0.814945 New temp=19.9789 New D=251236                           
Cost=1737.42 R=0.793628 New temp=18.98 New D=340080                           
Cost=1761.2 R=0.783556 New temp=18.031 New D=456916                           
Cost=1645.52 R=0.784727 New temp=17.1294 New D=614427                           
Cost=1725.18 R=0.767861 New temp=16.273 New D=815873                           
Cost=1727.9 R=0.76833 New temp=15.4593 New D=1083748                           
Cost=1696.72 R=0.765285 New temp=14.6863 New D=1436274                           
Cost=1593.54 R=0.75123 New temp=13.952 New D=1883285                           
Cost=1697.51 R=0.752401 New temp=13.2544 New D=2471625                           
Cost=1517.88 R=0.749824 New temp=12.5917 New D=3237394                           
Cost=1703.1 R=0.748887 New temp=11.9621 New D=4237383                           
Cost=1558.94 R=0.739049 New temp=11.364 New D=5504567                           
Cost=1630.48 R=0.745608 New temp=10.7958 New D=7186805                           
Cost=1604.8 R=0.715859 New temp=10.256 New D=9169346                           
Cost=1605.73 R=0.726634 New temp=9.74322 New D=11797591                           
Cost=1593.75 R=0.721246 New temp=9.25606 New D=15115618                           
Cost=1546.5 R=0.727337 New temp=8.79326 New D=19458888                           
Cost=1487.36 R=0.714453 New temp=8.3536 New D=24799438                           
Cost=1467.19 R=0.710471 New temp=7.93592 New D=31506962                           
Cost=1550.07 R=0.705552 New temp=7.53912 New D=39873687                           
Cost=1517.25 R=0.701101 New temp=7.16216 New D=50284744                           
Cost=1459.3 R=0.700867 New temp=6.80406 New D=63402359                           
Cost=1515.64 R=0.701101 New temp=6.46385 New D=79956775                           
Cost=1525.5 R=0.681658 New temp=6.14066 New D=99279006                           
Cost=1417.27 R=0.678379 New temp=5.83363 New D=122945037                           
Cost=1399.12 R=0.680956 New temp=5.54195 New D=152569347                           
Cost=1745.95 R=0.680721 New temp=5.26485 New D=189296066                           
Cost=1391.42 R=0.687515 New temp=5.00161 New D=236149613                           
Cost=1374.42 R=0.674865 New temp=4.75153 New D=291612964                           
Cost=1362.13 R=0.664793 New temp=4.51395 New D=357165427                           
Cost=1386.3 R=0.658 New temp=4.28825 New D=435027322                           
Cost=1406.17 R=0.657063 New temp=4.07384 New D=529455459                           
Cost=1336.31 R=0.669478 New temp=3.87015 New D=650953642                           
Cost=1401.66 R=0.65472 New temp=3.67664 New D=790726456                           
Cost=1433.96 R=0.646521 New temp=3.49281 New D=954028417                           
Cost=1396.64 R=0.654252 New temp=3.31817 New D=1158430513                           
Cost=1366.19 R=0.639728 New temp=3.15226 New D=1389801839                           
Cost=1376.95 R=0.651909 New temp=2.99465 New D=1684313512                           
Cost=1461.75 R=0.64863 New temp=2.84491 New D=2035711260                           
Cost=1367.85 R=0.646521 New temp=2.70267 New D=-2147483648                           
Cost=1327.91 R=0.655657 New temp=2.56753 New D=-2147483648                           
Cost=1330.25 R=0.644882 New temp=2.43916 New D=-2147483648                           
Cost=1323.51 R=0.635278 New temp=2.3172 New D=-2147483648                           
Cost=1383.02 R=0.631295 New temp=2.20134 New D=-2147483648                           
Cost=1316.51 R=0.647693 New temp=2.09127 New D=-2147483648                           
Cost=1305.78 R=0.627782 New temp=1.98671 New D=-2147483648                           
Cost=1300.8 R=0.614664 New temp=1.88737 New D=-2147483648                           
Cost=1303.5 R=0.640197 New temp=1.79301 New D=-2147483648                           
Cost=1292.05 R=0.623565 New temp=1.70336 New D=-2147483648                           
Cost=1316.55 R=0.62989 New temp=1.61819 New D=-2147483648                           
Cost=1314.05 R=0.626845 New temp=1.53728 New D=-2147483648                           
Cost=1298.51 R=0.626845 New temp=1.46041 New D=-2147483648                           
Cost=1286.73 R=0.614195 New temp=1.38739 New D=-2147483648                           
Cost=1312.3 R=0.61443 New temp=1.31802 New D=-2147483648                           
Cost=1366.5 R=0.618412 New temp=1.25212 New D=-2147483648                           
Cost=1303.58 R=0.609979 New temp=1.18952 New D=-2147483648                           
Cost=1328.79 R=0.616304 New temp=1.13004 New D=-2147483648                           
Cost=1282.27 R=0.624268 New temp=1.07354 New D=-2147483648                           
Cost=1282.96 R=0.620052 New temp=1.01986 New D=-2147483648                           
Cost=1275.79 R=0.608808 New temp=0.968869 New D=-2147483648                           
Cost=1266.58 R=0.607636 New temp=0.920425 New D=-2147483648                           
Cost=1259.16 R=0.609979 New temp=0.874404 New D=-2147483648                           
Cost=1253.44 R=0.611384 New temp=0.830684 New D=-2147483648                           
Cost=1260.66 R=0.595221 New temp=0.789149 New D=-2147483648                           
Cost=1273.03 R=0.602015 New temp=0.749692 New D=-2147483648                           
Cost=1255.27 R=0.604357 New temp=0.712207 New D=-2147483648                           
Cost=1255.73 R=0.609276 New temp=0.676597 New D=-2147483648                           
Cost=1257.1 R=0.606231 New temp=0.642767 New D=-2147483648                           
Cost=1252.36 R=0.601312 New temp=0.610629 New D=-2147483648                           
Cost=1256.59 R=0.590536 New temp=0.580097 New D=-2147483648                           
Cost=1254.25 R=0.618646 New temp=0.551093 New D=-2147483648                           
Cost=1248.59 R=0.613727 New temp=0.523538 New D=-2147483648                           
Cost=1284.2 R=0.596627 New temp=0.497361 New D=-2147483648                           
Cost=1247.64 R=0.593113 New temp=0.472493 New D=-2147483648                           
Cost=1251.19 R=0.613258 New temp=0.448868 New D=-2147483648                           
Cost=1353.69 R=0.598032 New temp=0.426425 New D=-2147483648                           
Cost=1400.37 R=0.601078 New temp=0.405104 New D=-2147483648                           
Cost=1242.96 R=0.592879 New temp=0.384848 New D=-2147483648                           
Cost=1399.03 R=0.590068 New temp=0.365606 New D=-2147483648                           
Cost=1278.18 R=0.594987 New temp=0.347326 New D=-2147483648                           
Cost=1237.84 R=0.601312 New temp=0.329959 New D=-2147483648                           
Cost=1238.26 R=0.597095 New temp=0.313461 New D=-2147483648                           
Cost=1238.36 R=0.598501 New temp=0.297788 New D=-2147483648                           
Cost=1240.21 R=0.578356 New temp=0.282899 New D=-2147483648                           
Cost=1239.53 R=0.595221 New temp=0.268754 New D=-2147483648                           
Cost=1247.66 R=0.594987 New temp=0.255316 New D=-2147483648                           
Cost=1237.43 R=0.590771 New temp=0.242551 New D=-2147483648                           
Cost=1243.71 R=0.599438 New temp=0.230423 New D=-2147483648                           
Cost=1251.11 R=0.591239 New temp=0.218902 New D=-2147483648                           
Cost=1249.05 R=0.583978 New temp=0.207957 New D=-2147483648                           
Cost=1257.23 R=0.596393 New temp=0.197559 New D=-2147483648                           
Cost=1274.32 R=0.589131 New temp=0.187681 New D=-2147483648                           
Cost=1237.67 R=0.585617 New temp=0.178297 New D=-2147483648                           
Cost=1238.15 R=0.596393 New temp=0.169382 New D=-2147483648                           
Cost=1238.25 R=0.587257 New temp=0.160913 New D=-2147483648                           
Cost=1245.49 R=0.595456 New temp=0.152867 New D=-2147483648                           
Cost=1235.27 R=0.595456 New temp=0.145224 New D=-2147483648                           
Cost=1235.61 R=0.594284 New temp=0.137963 New D=-2147483648                           
Cost=1236.85 R=0.603654 New temp=0.131065 New D=-2147483648                           
Cost=1338.89 R=0.592645 New temp=0.124511 New D=-2147483648                           
Cost=1248.62 R=0.590771 New temp=0.118286 New D=-2147483648                           
Cost=1234.79 R=0.586086 New temp=0.112372 New D=-2147483648                           
Cost=1234.25 R=0.604591 New temp=0.106753 New D=-2147483648                           
Cost=1234.01 R=0.597095 New temp=0.101415 New D=-2147483648                           
Cost=1244.95 R=0.606231 New temp=0.0963445 New D=-2147483648                           
Cost=1252.39 R=0.605528 New temp=0.0915273 New D=-2147483648                           
Cost=1232.96 R=0.607636 New temp=0.0869509 New D=-2147483648                           
Cost=1231.86 R=0.59569 New temp=0.0826034 New D=-2147483648                           
Cost=1231.49 R=0.589834 New temp=0.0784732 New D=-2147483648                           
Cost=1261.23 R=0.605997 New temp=0.0745496 New D=-2147483648                           
Cost=1244.18 R=0.58796 New temp=0.0708221 New D=-2147483648                           
Cost=1268.87 R=0.591473 New temp=0.067281 New D=-2147483648                           
Cost=1231.24 R=0.59405 New temp=0.0639169 New D=-2147483648                           
Cost=1231.1 R=0.581167 New temp=0.0607211 New D=-2147483648                           
Cost=1340.17 R=0.586554 New temp=0.057685 New D=-2147483648                           
Cost=1230.68 R=0.582338 New temp=0.0548008 New D=-2147483648                           
Cost=1230.68 R=0.59569 New temp=0.0520607 New D=-2147483648                           
Cost=1230.67 R=0.599204 New temp=0.0494577 New D=-2147483648                           
Cost=1229.9 R=0.588897 New temp=0.0469848 New D=-2147483648                           
Cost=1229.88 R=0.593347 New temp=0.0446356 New D=-2147483648                           
Cost=1229.68 R=0.598969 New temp=0.0424038 New D=-2147483648                           
Cost=1229.68 R=0.599672 New temp=0.0402836 New D=-2147483648                           
Cost=1229.77 R=0.590068 New temp=0.0382694 New D=-2147483648                           
Cost=1243.31 R=0.594987 New temp=0.036356 New D=-2147483648                           
Cost=1229.58 R=0.583978 New temp=0.0345382 New D=-2147483648                           
Cost=1235.33 R=0.579995 New temp=0.0328113 New D=-2147483648                           
Cost=1229.66 R=0.598267 New temp=0.0311707 New D=-2147483648                           
Cost=1326.13 R=0.598267 New temp=0.0296122 New D=-2147483648                           
Cost=1264.38 R=0.607168 New temp=0.0281315 New D=-2147483648                           
Cost=1229.27 R=0.592176 New temp=0.026725 New D=-2147483648                           
Cost=1229.27 R=0.588897 New temp=0.0253887 New D=-2147483648                           
Cost=1229.24 R=0.584446 New temp=0.0241193 New D=-2147483648                           
Cost=1228.93 R=0.600141 New temp=0.0229133 New D=-2147483648                           
Cost=1244.05 R=0.607168 New temp=0.0217677 New D=-2147483648                           
Cost=1314.82 R=0.589599 New temp=0.0206793 New D=-2147483648                           
Cost=1228.61 R=0.578121 New temp=0.0196453 New D=-2147483648                           
Cost=1239.74 R=0.600843 New temp=0.018663 New D=-2147483648                           
Cost=1278.12 R=0.591708 New temp=0.0177299 New D=-2147483648                           
Cost=1255.46 R=0.585149 New temp=0.0168434 New D=-2147483648                           
Cost=1304.59 R=0.602249 New temp=0.0160012 New D=-2147483648                           
Cost=1228.47 R=0.593347 New temp=0.0152012 New D=-2147483648                           
Cost=1238.34 R=0.591005 New temp=0.0144411 New D=-2147483648                           
Cost=1228.46 R=0.602249 New temp=0.0137191 New D=-2147483648                           
Cost=1228.23 R=0.587725 New temp=0.0130331 New D=-2147483648                           
Cost=1228.21 R=0.591708 New temp=0.0123814 New D=-2147483648                           
Cost=1228.2 R=0.589834 New temp=0.0117624 New D=-2147483648                           
Cost=1244.05 R=0.590068 New temp=0.0111743 New D=-2147483648                           
Cost=1228.13 R=0.59241 New temp=0.0106155 New D=-2147483648                           
Cost=1527.36 R=0.583978 New temp=0.0100848 New D=-2147483648                           
Cost=1228.13 R=0.576716 New temp=0.00958053 New D=-2147483648                           
Cost=1228.09 R=0.589834 New temp=0.0091015 New D=-2147483648                           
Cost=1274.51 R=0.578356 New temp=0.00864642 New D=-2147483648                           
Cost=1249.36 R=0.590302 New temp=0.0082141 New D=-2147483648                           
Cost=1227.99 R=0.596627 New temp=0.0078034 New D=-2147483648                           
Cost=1227.99 R=0.583978 New temp=0.00741323 New D=-2147483648                           
Cost=1232.15 R=0.59405 New temp=0.00704257 New D=-2147483648                           
Cost=1227.99 R=0.599906 New temp=0.00669044 New D=-2147483648                           
Cost=1252.25 R=0.594987 New temp=0.00635592 New D=-2147483648                           
Cost=1248.34 R=0.595221 New temp=0.00603812 New D=-2147483648                           
Cost=1341.87 R=0.589365 New temp=0.00573621 New D=-2147483648                           
Cost=1301.43 R=0.581401 New temp=0.0054494 New D=-2147483648                           
Cost=1227.71 R=0.596861 New temp=0.00517693 New D=-2147483648                           
Cost=1236.79 R=0.590771 New temp=0.00491809 New D=-2147483648                           
Cost=1227.71 R=0.577419 New temp=0.00467218 New D=-2147483648                           
Cost=1238.27 R=0.591473 New temp=0.00443857 New D=-2147483648                           
Cost=1227.68 R=0.580464 New temp=0.00421664 New D=-2147483648                           
Cost=1227.54 R=0.589599 New temp=0.00400581 New D=-2147483648                           
Cost=1351.46 R=0.591708 New temp=0.00380552 New D=-2147483648                           
Cost=1227.51 R=0.599204 New temp=0.00361525 New D=-2147483648                           
Cost=1227.51 R=0.586788 New temp=0.00343448 New D=-2147483648                           
Cost=1227.51 R=0.599438 New temp=0.00326276 New D=-2147483648                           
Cost=1227.51 R=0.600141 New temp=0.00309962 New D=-2147483648                           
Cost=1277.45 R=0.598969 New temp=0.00294464 New D=-2147483648                           
Cost=1227.21 R=0.578121 New temp=0.00279741 New D=-2147483648                           
Cost=1227.2 R=0.576247 New temp=0.00265754 New D=-2147483648                           
Cost=1227.2 R=0.583275 New temp=0.00252466 New D=-2147483648                           
Cost=1232.66 R=0.591005 New temp=0.00239843 New D=-2147483648                           
Cost=1227.19 R=0.595924 New temp=0.00227851 New D=-2147483648                           
Cost=1227.19 R=0.591005 New temp=0.00216458 New D=-2147483648                           
Cost=1234.27 R=0.577653 New temp=0.00205635 New D=-2147483648                           
Cost=1228.91 R=0.573202 New temp=0.00195353 New D=-2147483648                           
Cost=1227.19 R=0.591239 New temp=0.00185586 New D=-2147483648                           
Cost=1227.19 R=0.595924 New temp=0.00176306 New D=-2147483648                           
Cost=1227.19 R=0.580698 New temp=0.00167491 New D=-2147483648                           
Cost=1232.15 R=0.583743 New temp=0.00159117 New D=-2147483648                           
Cost=1244.04 R=0.591708 New temp=0.00151161 New D=-2147483648                           
Cost=1268.21 R=0.591239 New temp=0.00143603 New D=-2147483648                           
Cost=1253.75 R=0.585149 New temp=0.00136423 New D=-2147483648                           
Cost=1227.1 R=0.594519 New temp=0.00129601 New D=-2147483648                           
Cost=1227.1 R=0.582572 New temp=0.00123121 New D=-2147483648                           
Cost=1227.1 R=0.588194 New temp=0.00116965 New D=-2147483648                           
Cost=1258.53 R=0.593582 New temp=0.00111117 New D=-2147483648                           
Cost=1227.09 R=0.598501 New temp=0.00105561 New D=-2147483648                           
Cost=1227.09 R=0.591239 New temp=0.00100283 New D=-2147483648                           
Cost=1227.09 R=0.595456 New temp=0.00095269 New D=-2147483648                           
Cost=1227.09 R=0.591239 New temp=0.000905055 New D=-2147483648                           
Cost=1274.82 R=0.597095 New temp=0.000859803 New D=-2147483648                           
Cost=1226.95 R=0.599672 New temp=0.000816813 New D=-2147483648                           
Cost=1226.95 R=0.599672 New temp=0.000775972 New D=-2147483648                           
Cost=1473.75 R=0.588194 New temp=0.000737173 New D=-2147483648                           
Cost=1226.83 R=0.588428 New temp=0.000700315 New D=-2147483648                           
Cost=1249.29 R=0.583978 New temp=0.000665299 New D=-2147483648                           
Cost=1226.83 R=0.579293 New temp=0.000632034 New D=-2147483648                           
Cost=1231.66 R=0.600141 New temp=0.000600432 New D=-2147483648                           
Cost=1226.83 R=0.59241 New temp=0.000570411 New D=-2147483648                           
Cost=1226.83 R=0.597095 New temp=0.00054189 New D=-2147483648                           
Cost=1264.4 R=0.59569 New temp=0.000514796 New D=-2147483648                           
Cost=1226.83 R=0.588662 New temp=0.000489056 New D=-2147483648                           
Cost=1250.96 R=0.605294 New temp=0.000464603 New D=-2147483648                           
Cost=1447.43 R=0.598267 New temp=0.000441373 New D=-2147483648                           
Cost=1279.09 R=0.587491 New temp=0.000419304 New D=-2147483648                           
Cost=1340.24 R=0.59733 New temp=0.000398339 New D=-2147483648                           
Cost=1226.81 R=0.60506 New temp=0.000378422 New D=-2147483648                           
Cost=1226.81 R=0.586086 New temp=0.000359501 New D=-2147483648                           
Cost=1233.61 R=0.580698 New temp=0.000341526 New D=-2147483648                           
Cost=1226.8 R=0.593113 New temp=0.00032445 New D=-2147483648                           
Cost=1226.8 R=0.585383 New temp=0.000308227 New D=-2147483648                           
Cost=1226.8 R=0.596861 New temp=0.000292816 New D=-2147483648                           
Cost=1226.8 R=0.592176 New temp=0.000278175 New D=-2147483648                           
Cost=1233.39 R=0.591005 New temp=0.000264266 New D=-2147483648                           
Cost=1226.79 R=0.594284 New temp=0.000251053 New D=-2147483648                           
Cost=1301.92 R=0.600609 New temp=0.0002385 New D=-2147483648                           
Cost=1226.79 R=0.596627 New temp=0.000226575 New D=-2147483648                           
Cost=1226.79 R=0.589365 New temp=0.000215247 New D=-2147483648                           
Cost=1237.24 R=0.577887 New temp=0.000204484 New D=-2147483648                           
Cost=1226.78 R=0.583743 New temp=0.00019426 New D=-2147483648                           
Cost=1256.66 R=0.593582 New temp=0.000184547 New D=-2147483648                           
Cost=1340.61 R=0.579761 New temp=0.00017532 New D=-2147483648                           
Cost=1226.66 R=0.599906 New temp=0.000166554 New D=-2147483648                           
Cost=1226.56 R=0.583743 New temp=0.000158226 New D=-2147483648                           
Cost=1226.56 R=0.580698 New temp=0.000150315 New D=-2147483648                           
Cost=1226.54 R=0.585149 New temp=0.000142799 New D=-2147483648                           
Cost=1226.54 R=0.589834 New temp=0.000135659 New D=-2147483648                           
Cost=1226.54 R=0.585149 New temp=0.000128876 New D=-2147483648                           
Cost=1226.54 R=0.58632 New temp=0.000122432 New D=-2147483648                           
Cost=1226.54 R=0.583509 New temp=0.000116311 New D=-2147483648                           
Cost=1226.54 R=0.596861 New temp=0.000110495 New D=-2147483648                           
Cost=1226.54 R=0.607402 New temp=0.00010497 New D=-2147483648                           
Cost=1248.7 R=0.598735 New temp=9.97218e-05 New D=-2147483648                           
Cost=1226.54 R=0.599438 New temp=9.47357e-05 New D=-2147483648                           
Cost=1226.52 R=0.594519 New temp=8.99989e-05 New D=-2147483648                           
Cost=1226.52 R=0.588428 New temp=8.5499e-05 New D=-2147483648                           
Cost=1226.52 R=0.598969 New temp=8.1224e-05 New D=-2147483648                           
Cost=1226.46 R=0.603654 New temp=7.71628e-05 New D=-2147483648                           
Cost=1265.25 R=0.587023 New temp=7.33047e-05 New D=-2147483648                           
Cost=1226.46 R=0.583978 New temp=6.96395e-05 New D=-2147483648                           
Cost=1226.46 R=0.588662 New temp=6.61575e-05 New D=-2147483648                           
Cost=1226.46 R=0.596393 New temp=6.28496e-05 New D=-2147483648                           
Cost=1226.46 R=0.59241 New temp=5.97071e-05 New D=-2147483648                           
Cost=1281.67 R=0.584914 New temp=5.67218e-05 New D=-2147483648                           
Cost=1226.46 R=0.594753 New temp=5.38857e-05 New D=-2147483648                           
Cost=1245.79 R=0.587257 New temp=5.11914e-05 New D=-2147483648                           
Cost=1226.46 R=0.609276 New temp=4.86318e-05 New D=-2147483648                           
Cost=1233.79 R=0.583041 New temp=4.62002e-05 New D=-2147483648                           
Cost=1226.46 R=0.595924 New temp=4.38902e-05 New D=-2147483648                           
Cost=1226.46 R=0.592645 New temp=4.16957e-05 New D=-2147483648                           
Cost=1252.66 R=0.598969 New temp=3.96109e-05 New D=-2147483648                           
Cost=1248.85 R=0.597798 New temp=3.76304e-05 New D=-2147483648                           
Cost=1226.46 R=0.582572 New temp=3.57489e-05 New D=-2147483648                           
Cost=1226.46 R=0.588194 New temp=3.39614e-05 New D=-2147483648                           
Cost=1260.26 R=0.590302 New temp=3.22634e-05 New D=-2147483648                           
Cost=1226.46 R=0.602249 New temp=3.06502e-05 New D=-2147483648                           
Cost=1226.46 R=0.58796 New temp=2.91177e-05 New D=-2147483648                           
Cost=1226.46 R=0.587257 New temp=2.76618e-05 New D=-2147483648                           
Cost=1287.68 R=0.593113 New temp=2.62787e-05 New D=-2147483648                           
Cost=1226.46 R=0.580932 New temp=2.49648e-05 New D=-2147483648                           
Cost=1226.46 R=0.586554 New temp=2.37165e-05 New D=-2147483648                           
Cost=1226.46 R=0.601546 New temp=2.25307e-05 New D=-2147483648                           
Cost=1226.46 R=0.593816 New temp=2.14042e-05 New D=-2147483648                           
Cost=1226.46 R=0.579995 New temp=2.0334e-05 New D=-2147483648                           
Cost=1226.45 R=0.594753 New temp=1.93173e-05 New D=-2147483648                           
Cost=1226.45 R=0.598735 New temp=1.83514e-05 New D=-2147483648                           
Cost=1226.45 R=0.595221 New temp=1.74338e-05 New D=-2147483648                           
Cost=1226.45 R=0.58796 New temp=1.65621e-05 New D=-2147483648                           
Cost=1260.44 R=0.593347 New temp=1.5734e-05 New D=-2147483648                           
Cost=1226.45 R=0.593816 New temp=1.49473e-05 New D=-2147483648                           
Cost=1226.45 R=0.581167 New temp=1.42e-05 New D=-2147483648                           
Cost=1226.45 R=0.59569 New temp=1.349e-05 New D=-2147483648                           
Cost=1226.45 R=0.581635 New temp=1.28155e-05 New D=-2147483648                           
Cost=1226.45 R=0.591005 New temp=1.21747e-05 New D=-2147483648                           
Cost=1286.49 R=0.59733 New temp=1.1566e-05 New D=-2147483648                           
Cost=1226.45 R=0.607636 New temp=1.09877e-05 New D=-2147483648                           
Cost=1226.45 R=0.585383 New temp=1.04383e-05 New D=-2147483648                           
Cost=1226.45 R=0.572265 New temp=9.91636e-06 New D=-2147483648                           
......;..<..=......].......\..........PA..B..C..D..E..>..?..@...
................................................................
................................................................
................................................................
................................................................
................................................................
0....u.........................................................N
................................................................
................................................................
3..............................................................Q
........9...;....q.......5..................vvv.................
........9............4.......3......p...o...vvv.................
4...........................................vvv................R
............................................vvv.................
................................................................
F...............................................................
................................................................
.........................s......................................
G..............................n...r............................
...........::....<......................m.......................
................................................................
H...............................................................
................................................................
................................................................
I.......................a.......................................
........................a.......................................
........................a.......................................
J.......................a.......................................
........................a.......................................
........................a.......................................
K.......................a.......................................
........................a.......................................
................................................................
L...............................................................
................................................................
................................................................
M...............................................................
................................................................
.....................f...........g..............................
6........................h...i.................2...............V
........................................wwww...................O
........................................wwww....................
7..................................1...........................W
...............................................t................
................................................................
8.............................0................................X
...........................................j....................
.......................................x...j...d................
9.................................z........j...................Y
................................................................
................................................................
:.....................................y........................Z
................................................................
................................................................
1..................................................c...l.......S
...............................................b................
................................................................
2..........................................................k...T
.........7...8...6..............................................
................................................................
5......................................................e.......U
................................................................
................................................................
......[..^.._..........................c..d..e..f..g..`..a..b...

a:add(add_8)
b:ldlog4(nor2)
c:ldlog3(or2)
d:ldlog2(or2)
e:ldlog1(or2)
f:xregl3(and2)
g:xregl2(and2)
h:xregl1(and2)
i:xregl0(and2)
j:xreg(dff_negedge)
k:constor1(or2)
l:constor0(or2)
m:wtl9(and2)
n:wtl8(and2)
o:wtl7(and2)
p:wtl5(xnor)
q:wtl4(xnor)
r:wtl2(xnor)
s:wtl1(xnor)
t:wcountl2(not)
u:wcountl1(or2)
v:wcount(count4_clkb_clrb)
w:wt(latch4)
x:wtld(and2)
y:wldor(or2)
z:winor3(or2)
0:winor2(or2)
1:winor1(or2)
2:winor0(or2)
3:cincl2(nand2)
4:cincl1(and2)
5:cincl0(and2)
6:rincl2(nand2)
7:rincl1(and2)
8:rincl0(and2)
9:cinc(add_2)
::rinc(add_2)
;:c1(one)
<:r1(one)
0:wcount_tickw[input]
1:ld_const0_w[input]
2:ld_const1_w[input]
3:cin0[input]
4:cin1[input]
5:ldw[input]
6:winw0[input]
7:winw1[input]
8:winw2[input]
9:winw3[input]
::wldw[input]
;:wcount_tickn[input]
<:rin1[input]
=:rin0[input]
>:ld_const0_n[input]
?:ld_const1_n[input]
@:ldn[input]
A:winn3[input]
B:winn2[input]
C:winn1[input]
D:winn0[input]
E:wldn[input]
F:sin0[input]
G:sin1[input]
H:sin2[input]
I:sin3[input]
J:sin4[input]
K:sin5[input]
L:sin6[input]
M:sin7[input]
N:wcount_ticke[output]
O:wcout0[output]
P:wcout1[output]
Q:cout0[output]
R:cout1[output]
S:ld_const0_e[output]
T:ld_const1_e[output]
U:lde[output]
V:woute0[output]
W:woute1[output]
X:woute2[output]
Y:woute3[output]
Z:wlde[output]
[:wcount_ticks[output]
\:wrout1[output]
]:wrout0[output]
^:rout1[output]
_:rout0[output]
`:ld_const0_s[output]
a:ld_const1_s[output]
b:lds[output]
c:wouts3[output]
d:wouts2[output]
e:wouts1[output]
f:wouts0[output]
g:wlds[output]

Beginning routing
Net 1: [60,0]w(edge=1) [60,55]e(edge=0) 

Net 2: [0,60]n(edge=1) [60,55]n(edge=0) 

Net 3: [47,47]w(edge=0) [47,43]w(edge=0) 

Net 4: [31,24]e(edge=0) [55,47]w(edge=0) 

Net 5: [55,47]e(edge=0) [54,51]s(edge=0) 

Net 6: [54,51]n(edge=0) [47,43]e(edge=0) 

Net 7: [19,17]s(edge=0) [19,12]s(edge=0) 

Net 8: [19,12]s(edge=0) [58,13]w(edge=0) [58,17]e(edge=0) 

Net 9: [19,11]s(edge=0) [58,9]w(edge=0) [58,17]s(edge=0) 

Net 10: [58,17]n(edge=0) [58,13]n(edge=0) [58,9]n(edge=0) 

Net 11: [58,13]s(edge=0) [63,12]s(edge=1) 

Net 12: [58,9]s(edge=0) [63,9]s(edge=1) 

Net 13: [10,12]w(edge=0) [10,8]e(edge=0) 

Net 14: [10,8]e(edge=0) [10,25]e(edge=0) [11,29]n(edge=0) 

Net 15: [11,8]e(edge=0) [11,21]w(edge=0) [11,29]e(edge=0) 

Net 16: [11,29]w(edge=0) [10,25]s(edge=0) [11,21]n(edge=0) 

Net 17: [10,25]n(edge=0) [9,63]e(edge=1) 

Net 18: [11,21]s(edge=0) [12,63]e(edge=1) 

Net 19: [0,48]n(edge=1) [39,47]n(edge=0) 

Net 20: [39,0]w(edge=1) [39,47]w(edge=0) 

Net 21: [0,45]n(edge=1) [42,35]n(edge=0) 

Net 22: [42,0]w(edge=1) [42,35]w(edge=0) 

Net 23: [0,42]n(edge=1) [45,30]n(edge=0) 

Net 24: [45,0]w(edge=1) [45,30]w(edge=0) 

Net 25: [0,39]n(edge=1) [48,34]n(edge=0) 

Net 26: [48,0]w(edge=1) [48,34]w(edge=0) 

Net 27: [39,47]s(edge=0) [63,48]s(edge=1) [39,63]e(edge=1) [41,40]s(edge=0) 

Net 28: [42,35]s(edge=0) [63,45]s(edge=1) [42,63]e(edge=1) [41,41]s(edge=0) 

Net 29: [45,30]s(edge=0) [63,42]s(edge=1) [45,63]e(edge=1) [41,42]s(edge=0) 

Net 30: [48,34]s(edge=0) [63,39]s(edge=1) [48,63]e(edge=1) [41,43]s(edge=0) 

Net 31: [0,51]n(edge=1) [51,38]n(edge=0) 

Net 32: [51,0]w(edge=1) [51,38]w(edge=0) 

Net 33: [51,38]s(edge=0) [63,51]s(edge=1) [51,63]e(edge=1) [47,39]s(edge=0) 

Net 34: [60,55]w(edge=0) [60,63]e(edge=1) [63,60]s(edge=1) [47,47]e(edge=0) [43,47]s(edge=0) 

Net 35: [43,47]n(edge=0) [10,44]n(edge=0) 

Net 36: [6,0]w(edge=1) [6,5]e(edge=0) 

Net 37: [0,6]n(edge=1) [6,5]n(edge=0) 

Net 38: [6,5]w(edge=0) [10,45]n(edge=0) [6,63]e(edge=1) [63,6]s(edge=1) 

Net 39: [54,0]w(edge=1) [54,55]e(edge=0) 

Net 40: [0,54]n(edge=1) [54,55]n(edge=0) 

Net 41: [54,55]w(edge=0) [63,54]s(edge=1) [54,51]e(edge=0) [54,63]e(edge=1) 

Net 42: [57,0]w(edge=1) [57,59]e(edge=0) 

Net 43: [0,57]n(edge=1) [57,59]n(edge=0) 

Net 44: [57,59]w(edge=0) [63,57]s(edge=1) [55,47]s(edge=0) [57,63]e(edge=1) 

Net 45: [12,46]e(edge=0) [17,25]n(edge=0) 

Net 46: [0,12]n(edge=1) [19,12]n(edge=0) [17,25]w(edge=0) 

Net 47: [13,46]e(edge=0) [18,35]w(edge=0) 

Net 48: [0,9]n(edge=1) [19,11]n(edge=0) [18,35]s(edge=0) 

Net 49: [10,46]e(edge=0) [10,17]n(edge=0) 

Net 50: [9,0]w(edge=1) [10,8]w(edge=0) [10,17]w(edge=0) 

Net 51: [11,46]e(edge=0) [11,36]e(edge=0) 

Net 52: [12,0]w(edge=1) [11,8]w(edge=0) [11,36]n(edge=0) 

Net 53: [17,25]s(edge=0) [18,31]n(edge=0) 

Net 54: [18,35]e(edge=0) [18,31]w(edge=0) 

Net 55: [10,17]s(edge=0) [11,40]n(edge=0) 

Net 56: [11,36]w(edge=0) [11,40]w(edge=0) 

Net 57: [18,31]s(edge=0) [19,40]n(edge=0) 

Net 58: [11,40]s(edge=0) [19,40]w(edge=0) 

Net 59: [19,40]s(edge=0) [47,39]e(edge=0) 

Net 60: [47,39]n(edge=0) [47,47]n(edge=0) [41,40]w(edge=0) 

Net 61: [46,43]n(edge=0) [39,29]w(edge=0) [39,25]w(edge=0) [38,33]s(edge=0) [38,21]s(edge=0) 

Net 62: [40,40]n(edge=0) [39,29]s(edge=0) 

Net 63: [40,41]n(edge=0) [39,25]s(edge=0) 

Net 64: [40,42]n(edge=0) [38,33]e(edge=0) 

Net 65: [40,43]n(edge=0) [38,21]e(edge=0) 

Net 66: [39,29]e(edge=0) [24,24]e(edge=0) 

Net 67: [39,25]e(edge=0) [25,24]e(edge=0) 

Net 68: [38,33]n(edge=0) [26,24]e(edge=0) 

Net 69: [38,21]n(edge=0) [27,24]e(edge=0) [28,24]e(edge=0) [29,24]e(edge=0) [30,24]e(edge=0) [31,24]e(edge=0) 

Net 70: [15,0]w(edge=1) [24,24]w(edge=0) 

Net 71: [18,0]w(edge=1) [25,24]w(edge=0) 

Net 72: [21,0]w(edge=1) [26,24]w(edge=0) 

Net 73: [24,0]w(edge=1) [27,24]w(edge=0) 

Net 74: [27,0]w(edge=1) [28,24]w(edge=0) 

Net 75: [30,0]w(edge=1) [29,24]w(edge=0) 

Net 76: [33,0]w(edge=1) [30,24]w(edge=0) 

Net 77: [36,0]w(edge=1) [31,24]w(edge=0) 

1:<77185> 2:<49686> 3:<68164> 4:<31161> 5:<16742> 6:<51644> 7:<47849> 8:<60200> 9:<48277> 10:<68165> 11:<54182> 12:<67746> 13:<44308> 14:<49501> 15:<59704> 16:<16898> 17:<28455> 18:<53026> 19:<82416> 20:<62738> 21:<38655> 22:<50882> 23:<11660> 24:<11487> 25:<18751> 26:<29117> 27:<13341> 28:<15931> 29:<14277> 30:<4515> 31:<8274> 32:<11742> 33:<9765> 34:<8356> 35:<950> 36:<5198> 37:<631> 38:<765> 39:<5894> 40:<2670> 41:<6388> 42:<7182> 43:<7799> 44:<8865> 45:<7198> 46:<2193> 47:<9765> 48:<4744> 49:<4100> 50:<7448> 51:<3351> 52:<5758> 53:<2325> 54:<2975> 55:<1050> 56:<1155> 57:<7787> 58:<6184> 59:<11415> 60:<13140> 61:<3359> 62:<8034> 63:<11071> 64:<1755> 65:<2543> 66:<1890> 67:<950> 68:<7214> 69:<9765> 70:<7923> 71:<10430> 72:<13875> 73:<8951> 74:<15521> 75:<10725> 76:<11257> 77:<5880> 78:<2480> 79:<35338> 80:<20475> 81:<8030> 82:<3938> 83:<6207> 84:<2825> 85:<6180> 86:<4178> 87:<15714> 88:<6785> 89:<15850> 90:<20475> 91:<17850> 92:<33080> 93:<29822> 94:<16200> 95:<53354> 96:<51222> 97:<39051> 98:<25146> 99:<36603> 100:<29558> 101:<11819> 102:<25614> 103:<31557> 104:<22453> 105:<26780> 106:<31131> 107:<18734> 108:<32108> 109:<46884> 110:<21419> 111:<33930> 112:<29528> 113:<48618> 114:<27825> 115:<29532> 116:<3900> 117:<8850> 118:<1383> 119:<455> 120:<2175> 121:<855> 122:<275> 123:<275> 124:<680> 125:<1296> 126:<765> 127:<180> 128:<113> 129:<2814> 130:<75> 131:<105> 132:<772> 133:<275> 134:<1050> 135:<1380> 136:<6398> 137:<50> 138:<50> 139:<50> 140:<75> 141:<5> 142:<5> 143:<5> 144:<50> 145:<225> 146:<50> 147:<0> 
# of paths: 44
Average lengths: Straight=72  Turn=8  Sum=82
Max lengths: Straight=117  Turn=17  Sum=130
Cell utilization: total=4096 routing=2170 components=68
